{
  "app-id": "com.gitlab.kdeleteme.deskit",
  "runtime": "org.gnome.Platform",
  "runtime-version": "3.30",
  "sdk": "org.gnome.Sdk",
  "command": "deskit",
  "build-options": {
    "cflags": "-O2",
    "cxxflags": "-O2",
    "env": {
      "PKG_CONFIG_GOBJECT_INTROSPECTION_1_0_GIRDIR": "/app/share/gir-1.0",
      "PKG_CONFIG_GOBJECT_INTROSPECTION_1_0_TYPELIBDIR": "/app/lib/girepository-1.0"
    }
  },
  "cleanup": [
    "/include",
    "/lib/pkgconfig",
    "/lib/debug",
    "/share/vala",
    "/man",
    "*.a",
    "*.la"
  ],
  "finish-args": [
    /* X11 + XShm */
    "--share=ipc", "--socket=x11",
    /* Wayland */
    "--socket=wayland",
    /* dconf */
    "--filesystem=xdg-run/dconf", "--filesystem=~/.config/dconf:ro",
    "--talk-name=ca.desrt.dconf", "--env=DCONF_USER_CONFIG_DIR=.config/dconf",
    /* network */
    "--share=network"
  ],
  "modules": [
    {
      "name": "json-glib",
      "sources": [
        {
          "type": "archive",
          "url": "https://gitlab.gnome.org/GNOME/json-glib/-/archive/1.4.4/json-glib-1.4.4.tar.gz",
          "sha256": "4c11e7e462e4e47338f309fedb712301b1b64d3f3f3c1d7209b16bb6ca9653ff"
        }
      ]
    },
    {
      "name": "deskit",
      "buildsystem": "meson",
      "config-opts": ["--buildtype=release"],
      "sources": [
        {
          "type": "dir",
          "path": "./"
        }
      ]
    }
  ]
}

