<?xml version="1.0" encoding="UTF-8" standalone="no"?>
<svg
   xmlns:dc="http://purl.org/dc/elements/1.1/"
   xmlns:cc="http://creativecommons.org/ns#"
   xmlns:rdf="http://www.w3.org/1999/02/22-rdf-syntax-ns#"
   xmlns:svg="http://www.w3.org/2000/svg"
   xmlns="http://www.w3.org/2000/svg"
   id="svg8"
   version="1.1"
   viewBox="0 0 16.933333 16.933333"
   height="64"
   width="64">
  <defs
     id="defs2" />
  <metadata
     id="metadata5">
    <rdf:RDF>
      <cc:Work
         rdf:about="">
        <dc:format>image/svg+xml</dc:format>
        <dc:type
           rdf:resource="http://purl.org/dc/dcmitype/StillImage" />
        <dc:title></dc:title>
        <cc:license
           rdf:resource="http://creativecommons.org/licenses/by-nc-sa/4.0/" />
      </cc:Work>
      <cc:License
         rdf:about="http://creativecommons.org/licenses/by-nc-sa/4.0/">
        <cc:permits
           rdf:resource="http://creativecommons.org/ns#Reproduction" />
        <cc:permits
           rdf:resource="http://creativecommons.org/ns#Distribution" />
        <cc:requires
           rdf:resource="http://creativecommons.org/ns#Notice" />
        <cc:requires
           rdf:resource="http://creativecommons.org/ns#Attribution" />
        <cc:prohibits
           rdf:resource="http://creativecommons.org/ns#CommercialUse" />
        <cc:permits
           rdf:resource="http://creativecommons.org/ns#DerivativeWorks" />
        <cc:requires
           rdf:resource="http://creativecommons.org/ns#ShareAlike" />
      </cc:License>
    </rdf:RDF>
  </metadata>
  <g
     transform="translate(0,-280.06665)"
     id="layer1">
    <rect
       y="218.09758"
       x="-14.552085"
       height="8.6934528"
       width="8.6934528"
       id="rect846"
       style="opacity:1;fill:#c85329;fill-opacity:1;stroke:none;stroke-width:0.69152462;stroke-miterlimit:4;stroke-dasharray:none;stroke-opacity:1" />
    <rect
       rx="0.72961807"
       ry="0.67402232"
       y="280.06665"
       x="0"
       height="16.933332"
       width="16.933332"
       id="rect945"
       style="opacity:1;fill:#c85329;fill-opacity:1;stroke:none;stroke-width:0.78459471;stroke-miterlimit:4;stroke-dasharray:none;stroke-opacity:1" />
    <rect
       style="opacity:1;fill:#eeeeee;fill-opacity:1;stroke:none;stroke-width:1.32291663;stroke-miterlimit:4;stroke-dasharray:none;stroke-opacity:1"
       id="rect954"
       width="9.0871639"
       height="9.0871639"
       x="-14.552085"
       y="231.70473" />
    <path
       id="rect972"
       d="m 8.6869593,287.5484 -1.2840676,9.44804 h 2.3995931 l 1.2406622,-9.12863 z"
       style="opacity:1;fill:#cccccc;fill-opacity:1;stroke:none;stroke-width:0.66166723;stroke-miterlimit:4;stroke-dasharray:none;stroke-opacity:1" />
    <circle
       r="3.6835988"
       transform="rotate(-74.19742)"
       style="opacity:1;fill:#eeeeee;fill-opacity:1;stroke:none;stroke-width:0.75970346;stroke-miterlimit:4;stroke-dasharray:none;stroke-opacity:1"
       id="circle974"
       cx="-271.22824"
       cy="87.234894" />
    <rect
       y="245.16223"
       x="-14.552085"
       height="9.0871639"
       width="9.0871639"
       id="rect825"
       style="opacity:1;fill:#cccccc;fill-opacity:1;stroke:none;stroke-width:1.32291663;stroke-miterlimit:4;stroke-dasharray:none;stroke-opacity:1" />
  </g>
</svg>
